%!PS-Adobe-3.0
%%BoundingBox: 38 24 574 768
%%Title: ./thingstack.ps
%%For: Wesley Mackey
%%Creator: GNU Enscript 1.6.6
%%CreationDate: Fri Oct  4 13:38:28 2019
%%Orientation: Portrait
%%Pages: (atend)
%%DocumentMedia: Letter 612 792 0 () ()
%%DocumentNeededResources: (atend)
%%EndComments
%%BeginProlog
%%BeginResource: procset Enscript-Prolog 1.6 6
%
% Procedures.
%

/_S {	% save current state
  /_s save def
} def
/_R {	% restore from saved state
  _s restore
} def

/S {	% showpage protecting gstate
  gsave
  showpage
  grestore
} bind def

/MF {	% fontname newfontname -> -	make a new encoded font
  /newfontname exch def
  /fontname exch def

  /fontdict fontname findfont def
  /newfont fontdict maxlength dict def

  fontdict {
    exch
    dup /FID eq {
      % skip FID pair
      pop pop
    } {
      % copy to the new font dictionary
      exch newfont 3 1 roll put
    } ifelse
  } forall

  newfont /FontName newfontname put

  % insert only valid encoding vectors
  encoding_vector length 256 eq {
    newfont /Encoding encoding_vector put
  } if

  newfontname newfont definefont pop
} def

/MF_PS { % fontname newfontname -> -	make a new font preserving its enc
  /newfontname exch def
  /fontname exch def

  /fontdict fontname findfont def
  /newfont fontdict maxlength dict def

  fontdict {
    exch
    dup /FID eq {
      % skip FID pair
      pop pop
    } {
      % copy to the new font dictionary
      exch newfont 3 1 roll put
    } ifelse
  } forall

  newfont /FontName newfontname put

  newfontname newfont definefont pop
} def

/SF { % fontname width height -> -	set a new font
  /height exch def
  /width exch def

  findfont
  [width 0 0 height 0 0] makefont setfont
} def

/SUF { % fontname width height -> -	set a new user font
  /height exch def
  /width exch def

  /F-gs-user-font MF
  /F-gs-user-font width height SF
} def

/SUF_PS { % fontname width height -> -	set a new user font preserving its enc
  /height exch def
  /width exch def

  /F-gs-user-font MF_PS
  /F-gs-user-font width height SF
} def

/M {moveto} bind def
/s {show} bind def

/Box {	% x y w h -> -			define box path
  /d_h exch def /d_w exch def /d_y exch def /d_x exch def
  d_x d_y  moveto
  d_w 0 rlineto
  0 d_h rlineto
  d_w neg 0 rlineto
  closepath
} def

/bgs {	% x y height blskip gray str -> -	show string with bg color
  /str exch def
  /gray exch def
  /blskip exch def
  /height exch def
  /y exch def
  /x exch def

  gsave
    x y blskip sub str stringwidth pop height Box
    gray setgray
    fill
  grestore
  x y M str s
} def

/bgcs { % x y height blskip red green blue str -> -  show string with bg color
  /str exch def
  /blue exch def
  /green exch def
  /red exch def
  /blskip exch def
  /height exch def
  /y exch def
  /x exch def

  gsave
    x y blskip sub str stringwidth pop height Box
    red green blue setrgbcolor
    fill
  grestore
  x y M str s
} def

% Highlight bars.
/highlight_bars {	% nlines lineheight output_y_margin gray -> -
  gsave
    setgray
    /ymarg exch def
    /lineheight exch def
    /nlines exch def

    % This 2 is just a magic number to sync highlight lines to text.
    0 d_header_y ymarg sub 2 sub translate

    /cw d_output_w cols div def
    /nrows d_output_h ymarg 2 mul sub lineheight div cvi def

    % for each column
    0 1 cols 1 sub {
      cw mul /xp exch def

      % for each rows
      0 1 nrows 1 sub {
        /rn exch def
        rn lineheight mul neg /yp exch def
        rn nlines idiv 2 mod 0 eq {
	  % Draw highlight bar.  4 is just a magic indentation.
	  xp 4 add yp cw 8 sub lineheight neg Box fill
	} if
      } for
    } for

  grestore
} def

% Line highlight bar.
/line_highlight {	% x y width height gray -> -
  gsave
    /gray exch def
    Box gray setgray fill
  grestore
} def

% Column separator lines.
/column_lines {
  gsave
    .1 setlinewidth
    0 d_footer_h translate
    /cw d_output_w cols div def
    1 1 cols 1 sub {
      cw mul 0 moveto
      0 d_output_h rlineto stroke
    } for
  grestore
} def

% Column borders.
/column_borders {
  gsave
    .1 setlinewidth
    0 d_footer_h moveto
    0 d_output_h rlineto
    d_output_w 0 rlineto
    0 d_output_h neg rlineto
    closepath stroke
  grestore
} def

% Do the actual underlay drawing
/draw_underlay {
  ul_style 0 eq {
    ul_str true charpath stroke
  } {
    ul_str show
  } ifelse
} def

% Underlay
/underlay {	% - -> -
  gsave
    0 d_page_h translate
    d_page_h neg d_page_w atan rotate

    ul_gray setgray
    ul_font setfont
    /dw d_page_h dup mul d_page_w dup mul add sqrt def
    ul_str stringwidth pop dw exch sub 2 div ul_h_ptsize -2 div moveto
    draw_underlay
  grestore
} def

/user_underlay {	% - -> -
  gsave
    ul_x ul_y translate
    ul_angle rotate
    ul_gray setgray
    ul_font setfont
    0 0 ul_h_ptsize 2 div sub moveto
    draw_underlay
  grestore
} def

% Page prefeed
/page_prefeed {		% bool -> -
  statusdict /prefeed known {
    statusdict exch /prefeed exch put
  } {
    pop
  } ifelse
} def

% Wrapped line markers
/wrapped_line_mark {	% x y charwith charheight type -> -
  /type exch def
  /h exch def
  /w exch def
  /y exch def
  /x exch def

  type 2 eq {
    % Black boxes (like TeX does)
    gsave
      0 setlinewidth
      x w 4 div add y M
      0 h rlineto w 2 div 0 rlineto 0 h neg rlineto
      closepath fill
    grestore
  } {
    type 3 eq {
      % Small arrows
      gsave
        .2 setlinewidth
        x w 2 div add y h 2 div add M
        w 4 div 0 rlineto
        x w 4 div add y lineto stroke

        x w 4 div add w 8 div add y h 4 div add M
        x w 4 div add y lineto
	w 4 div h 8 div rlineto stroke
      grestore
    } {
      % do nothing
    } ifelse
  } ifelse
} def

% EPSF import.

/BeginEPSF {
  /b4_Inc_state save def    		% Save state for cleanup
  /dict_count countdictstack def	% Count objects on dict stack
  /op_count count 1 sub def		% Count objects on operand stack
  userdict begin
  /showpage { } def
  0 setgray 0 setlinecap
  1 setlinewidth 0 setlinejoin
  10 setmiterlimit [ ] 0 setdash newpath
  /languagelevel where {
    pop languagelevel
    1 ne {
      false setstrokeadjust false setoverprint
    } if
  } if
} bind def

/EndEPSF {
  count op_count sub { pos } repeat	% Clean up stacks
  countdictstack dict_count sub { end } repeat
  b4_Inc_state restore
} bind def

% Check PostScript language level.
/languagelevel where {
  pop /gs_languagelevel languagelevel def
} {
  /gs_languagelevel 1 def
} ifelse
%%EndResource
%%BeginResource: procset Enscript-Encoding-88591 1.6 6
/encoding_vector [
/.notdef      	/.notdef      	/.notdef      	/.notdef      	
/.notdef      	/.notdef      	/.notdef      	/.notdef      	
/.notdef      	/.notdef      	/.notdef      	/.notdef      	
/.notdef      	/.notdef      	/.notdef      	/.notdef      	
/.notdef      	/.notdef      	/.notdef      	/.notdef      	
/.notdef      	/.notdef      	/.notdef      	/.notdef      	
/.notdef      	/.notdef      	/.notdef      	/.notdef      	
/.notdef      	/.notdef      	/.notdef      	/.notdef      	
/space        	/exclam       	/quotedbl     	/numbersign   	
/dollar       	/percent      	/ampersand    	/quoteright   	
/parenleft    	/parenright   	/asterisk     	/plus         	
/comma        	/hyphen       	/period       	/slash        	
/zero         	/one          	/two          	/three        	
/four         	/five         	/six          	/seven        	
/eight        	/nine         	/colon        	/semicolon    	
/less         	/equal        	/greater      	/question     	
/at           	/A            	/B            	/C            	
/D            	/E            	/F            	/G            	
/H            	/I            	/J            	/K            	
/L            	/M            	/N            	/O            	
/P            	/Q            	/R            	/S            	
/T            	/U            	/V            	/W            	
/X            	/Y            	/Z            	/bracketleft  	
/backslash    	/bracketright 	/asciicircum  	/underscore   	
/quoteleft    	/a            	/b            	/c            	
/d            	/e            	/f            	/g            	
/h            	/i            	/j            	/k            	
/l            	/m            	/n            	/o            	
/p            	/q            	/r            	/s            	
/t            	/u            	/v            	/w            	
/x            	/y            	/z            	/braceleft    	
/bar          	/braceright   	/tilde        	/.notdef      	
/.notdef      	/.notdef      	/.notdef      	/.notdef      	
/.notdef      	/.notdef      	/.notdef      	/.notdef      	
/.notdef      	/.notdef      	/.notdef      	/.notdef      	
/.notdef      	/.notdef      	/.notdef      	/.notdef      	
/.notdef      	/.notdef      	/.notdef      	/.notdef      	
/.notdef      	/.notdef      	/.notdef      	/.notdef      	
/.notdef      	/.notdef      	/.notdef      	/.notdef      	
/.notdef      	/.notdef      	/.notdef      	/.notdef      	
/space        	/exclamdown   	/cent         	/sterling     	
/currency     	/yen          	/brokenbar    	/section      	
/dieresis     	/copyright    	/ordfeminine  	/guillemotleft	
/logicalnot   	/hyphen       	/registered   	/macron       	
/degree       	/plusminus    	/twosuperior  	/threesuperior	
/acute        	/mu           	/paragraph    	/bullet       	
/cedilla      	/onesuperior  	/ordmasculine 	/guillemotright	
/onequarter   	/onehalf      	/threequarters	/questiondown 	
/Agrave       	/Aacute       	/Acircumflex  	/Atilde       	
/Adieresis    	/Aring        	/AE           	/Ccedilla     	
/Egrave       	/Eacute       	/Ecircumflex  	/Edieresis    	
/Igrave       	/Iacute       	/Icircumflex  	/Idieresis    	
/Eth          	/Ntilde       	/Ograve       	/Oacute       	
/Ocircumflex  	/Otilde       	/Odieresis    	/multiply     	
/Oslash       	/Ugrave       	/Uacute       	/Ucircumflex  	
/Udieresis    	/Yacute       	/Thorn        	/germandbls   	
/agrave       	/aacute       	/acircumflex  	/atilde       	
/adieresis    	/aring        	/ae           	/ccedilla     	
/egrave       	/eacute       	/ecircumflex  	/edieresis    	
/igrave       	/iacute       	/icircumflex  	/idieresis    	
/eth          	/ntilde       	/ograve       	/oacute       	
/ocircumflex  	/otilde       	/odieresis    	/divide       	
/oslash       	/ugrave       	/uacute       	/ucircumflex  	
/udieresis    	/yacute       	/thorn        	/ydieresis    	
] def
%%EndResource
%%EndProlog
%%BeginSetup
%%IncludeResource: font Courier-Bold
/HFpt_w 10 def
/HFpt_h 10 def
/Courier-Bold /HF-gs-font MF
/HF /HF-gs-font findfont [HFpt_w 0 0 HFpt_h 0 0] makefont def
/Courier-Bold /F-gs-font MF
/F-gs-font 11 11 SF
/#copies 1 def
% Pagedevice definitions:
gs_languagelevel 1 gt {
  <<
    /PageSize [612 792] 
  >> setpagedevice
} if
%%BeginResource: procset Enscript-Header-enscript-mycolor 1.6 6
%%IncludeResource: font Times-Bold
%%IncludeResource: font Times-Roman

% Fonts.
/Times-Bold /HeaderFont-Bold MF
/HeaderDateF /HeaderFont-Bold findfont 12 scalefont def

/Times-Roman /HeaderFont-Times MF
/HeaderHDRF /HeaderFont-Times findfont 14 scalefont def

/HeaderPageNumF /Helvetica-Bold findfont 28.8 scalefont def
/HeaderPageCountF /Helvetica-Bold findfont 18 scalefont def

/do_header {	% print enscript header
  gsave
    d_header_x d_header_y translate

    /dhw d_header_w 4 sub def

    /linecolor {0 0 0 setrgbcolor} bind def  % line color
    /txcolor   {0 0 0 setrgbcolor} bind def  % text color
    /fncolor   {0 0 0 setrgbcolor} bind def  % filename line color

    .5 setlinewidth

    % line across bottom of the header area
    linecolor
    0 0 moveto dhw 0 lineto

    % side boxes
    /sbw d_header_h 2 mul def	% side box width

    % left side box
    0 0 sbw d_header_h Box
    linecolor
    stroke

    % date/time in left box
    txcolor
    HeaderDateF setfont
    moddatestr dup stringwidth pop sbw exch sub 2 div
    d_header_h 2 div 2 add moveto show
    modtimestr dup stringwidth pop sbw exch sub 2 div
    d_header_h 5 div moveto show

    % right side box
    dhw sbw sub 0 sbw d_header_h Box
    linecolor
    stroke

    % get width of pagecount
    HeaderPageCountF setfont
    pagecountstr stringwidth pop

    txcolor
    HeaderPageNumF setfont
    pagenumstr stringwidth pop add  % add to width of pagecount
    sbw exch sub 2 div dhw sbw sub add
    d_header_h .2 mul moveto

    pagenumstr show

    HeaderPageCountF setfont
    pagecountstr show

    % filename
    fncolor
    HeaderHDRF setfont
    dhw fname stringwidth pop sub 2 div d_header_h 8 div moveto
    fname show

    % user supplied header string.
    user_header_p {
      /h d_header_h 8 div 5 mul def

      % HACK around a bug in enscript 1.6.0:
      % for some reason this is getting set to "(null)" and
      %
      user_header_center_str (\(null\)) eq {
        /user_header_center_str () def
      } if

      % Implement strict enscript compatibility.
      user_header_center_str () eq user_header_right_str () eq and {
        dhw user_header_left_str stringwidth pop sub 2 div
        h moveto user_header_left_str show
      } {
        sbw 5 add h moveto user_header_left_str show

        dhw user_header_center_str stringwidth pop sub 2 div
        h moveto user_header_center_str show

	dhw sbw sub 5 sub user_header_right_str stringwidth pop
	sub h moveto user_header_right_str show
      } ifelse
    } if

  grestore
} bind def
%%EndResource
/d_page_w 536 def
/d_page_h 744 def
/d_header_x 0 def
/d_header_y 708 def
/d_header_w 536 def
/d_header_h 36 def
/d_footer_x 0 def
/d_footer_y 0 def
/d_footer_w 536 def
/d_footer_h 0 def
/d_output_w 536 def
/d_output_h 708 def
/cols 1 def
%%EndSetup
%%Page: (1) 1
%%BeginPageSetup
_S
38 24 translate
/pagenum 1 def
/fname (thingstack.cpp) def
/fdir (.) def
/ftail (thingstack.cpp) def
% User defined strings:
/pagenumstr (1) def
/moddatestr (10/04/19) def
/pagecountstr (/2) def
/modtimestr (13:38:27) def
/user_header_p true def
/user_header_left_str ($cse111-wm/Assignments/asg1-dc-bigint/misc) def
/user_header_center_str () def
/user_header_right_str () def
/user_footer_p false def
%%EndPageSetup
column_borders
do_header
32.4 694 M (1:) s
52.2 694 M
(// $Id: thingstack.cpp,v 1.22 2018-06-27 16:51:39-07 - - $) s
32.4 682 M (2:) s
32.4 670 M (3:) s
52.2 670 M
(#include <iostream>) s
32.4 658 M (4:) s
52.2 658 M
(#include <list>) s
32.4 646 M (5:) s
32.4 634 M (6:) s
52.2 634 M
(using namespace std;) s
32.4 622 M (7:) s
32.4 610 M (8:) s
52.2 610 M
(#include "iterstack.h") s
32.4 598 M (9:) s
25.8 586 M (10:) s
52.2 586 M
(int serial = 0;) s
25.8 574 M (11:) s
25.8 562 M (12:) s
52.2 562 M
(#define PRINT\(FUNC\) print\(FUNC, __LINE__\)) s
25.8 550 M (13:) s
25.8 538 M (14:) s
52.2 538 M
(struct thing {) s
25.8 526 M (15:) s
52.2 526 M
(   int ser;) s
25.8 514 M (16:) s
52.2 514 M
(   int val;) s
25.8 502 M (17:) s
52.2 502 M
(   explicit thing\(int v = int\(\)\);) s
25.8 490 M (18:) s
52.2 490 M
(   thing \(const thing&\);) s
25.8 478 M (19:) s
52.2 478 M
(   thing& operator= \(const thing&\);) s
25.8 466 M (20:) s
52.2 466 M
(   ~thing\(\);) s
25.8 454 M (21:) s
52.2 454 M
(   void print \(const char* name, int line\);) s
25.8 442 M (22:) s
52.2 442 M
(};) s
25.8 430 M (23:) s
25.8 418 M (24:) s
52.2 418 M
(thing::thing\(int v\): ser\(++serial\), val\(v\) {) s
25.8 406 M (25:) s
52.2 406 M
(   PRINT\(__PRETTY_FUNCTION__\);) s
25.8 394 M (26:) s
52.2 394 M
(}) s
25.8 382 M (27:) s
25.8 370 M (28:) s
52.2 370 M
(thing::thing \(const thing& that\): ser\(++serial\), val\(that.val\) {) s
25.8 358 M (29:) s
52.2 358 M
(   PRINT\(__PRETTY_FUNCTION__\);) s
25.8 346 M (30:) s
52.2 346 M
(}) s
25.8 334 M (31:) s
25.8 322 M (32:) s
52.2 322 M
(thing& thing::operator= \(const thing& that\) {) s
25.8 310 M (33:) s
52.2 310 M
(   if \(this != &that\) {) s
25.8 298 M (34:) s
52.2 298 M
(      val = that.val;) s
25.8 286 M (35:) s
52.2 286 M
(   }) s
25.8 274 M (36:) s
52.2 274 M
(   PRINT\(__PRETTY_FUNCTION__\);) s
25.8 262 M (37:) s
52.2 262 M
(   return *this;) s
25.8 250 M (38:) s
52.2 250 M
(}) s
25.8 238 M (39:) s
25.8 226 M (40:) s
52.2 226 M
(thing::~thing\(\) {) s
25.8 214 M (41:) s
52.2 214 M
(   PRINT\(__PRETTY_FUNCTION__\);) s
25.8 202 M (42:) s
52.2 202 M
(}) s
25.8 190 M (43:) s
25.8 178 M (44:) s
52.2 178 M
(void thing::print \(const char* name, int line\) {) s
25.8 166 M (45:) s
52.2 166 M
(   cout << name << "[" << line << "]: " << this << "-> ser=") s
25.8 154 M (46:) s
52.2 154 M
(        << ser << ", val=" << val << endl;) s
25.8 142 M (47:) s
52.2 142 M
(}) s
25.8 130 M (48:) s
_R
S
%%Page: (2) 2
%%BeginPageSetup
_S
38 24 translate
/pagenum 2 def
/fname (thingstack.cpp) def
/fdir (.) def
/ftail (thingstack.cpp) def
% User defined strings:
/pagenumstr (2) def
/moddatestr (10/04/19) def
/pagecountstr (/2) def
/modtimestr (13:38:27) def
/user_header_p true def
/user_header_left_str ($cse111-wm/Assignments/asg1-dc-bigint/misc) def
/user_header_center_str () def
/user_header_right_str () def
/user_footer_p false def
%%EndPageSetup
column_borders
do_header
25.8 694 M (49:) s
25.8 682 M (50:) s
52.2 682 M
(#define SCOPE\(X\) cout << endl << X << " scope " << __LINE__ << endl) s
25.8 670 M (51:) s
52.2 670 M
(   ) s
25.8 658 M (52:) s
52.2 658 M
(int main \(int, char**\) {) s
25.8 646 M (53:) s
52.2 646 M
(   iterstack<thing> stk;) s
25.8 634 M (54:) s
52.2 634 M
(   for \(int i = 0; i < 3; ++i\) {) s
25.8 622 M (55:) s
52.2 622 M
(      SCOPE\("enter"\);) s
25.8 610 M (56:) s
52.2 610 M
(      thing t\(i\);) s
25.8 598 M (57:) s
52.2 598 M
(      cout << endl << "stk.push \(t\);" << endl;) s
25.8 586 M (58:) s
52.2 586 M
(      stk.push \(t\);) s
25.8 574 M (59:) s
52.2 574 M
(      SCOPE\("leave"\);) s
25.8 562 M (60:) s
52.2 562 M
(   }) s
25.8 550 M (61:) s
52.2 550 M
(   while \(not stk.empty\(\)\) {) s
25.8 538 M (62:) s
52.2 538 M
(      SCOPE\("enter"\);) s
25.8 526 M (63:) s
52.2 526 M
(      thing t = stk.top\(\);) s
25.8 514 M (64:) s
52.2 514 M
(      t.PRINT\("stk.top\(\)"\);) s
25.8 502 M (65:) s
52.2 502 M
(      cout << endl << "stk.pop\(\);" << endl;) s
25.8 490 M (66:) s
52.2 490 M
(      stk.pop\(\);) s
25.8 478 M (67:) s
52.2 478 M
(      SCOPE\("leave"\);) s
25.8 466 M (68:) s
52.2 466 M
(   }) s
25.8 454 M (69:) s
52.2 454 M
(   return 0;) s
25.8 442 M (70:) s
52.2 442 M
(}) s
25.8 430 M (71:) s
25.8 418 M (72:) s
52.2 418 M
(/*) s
25.8 406 M (73:) s
52.2 406 M
(//TEST// valgrind --leak-check=full --show-reachable=yes \\) s
25.8 394 M (74:) s
52.2 394 M
(//TEST//       --log-file=thingstack.out.grind \\) s
25.8 382 M (75:) s
52.2 382 M
(//TEST//       thingstack >thingstack.out 2>&1) s
25.8 370 M (76:) s
52.2 370 M
(//TEST// mkpspdf thingstack.ps thingstack.cpp* iterstack.h \\) s
25.8 358 M (77:) s
52.2 358 M
(//TEST//       thingstack.out*) s
25.8 346 M (78:) s
52.2 346 M
(*/) s
25.8 334 M (79:) s
_R
S
%%Page: (1) 3
%%BeginPageSetup
_S
38 24 translate
/pagenum 1 def
/fname (thingstack.cpp.log) def
/fdir (.) def
/ftail (thingstack.cpp.log) def
% User defined strings:
/pagenumstr (1) def
/moddatestr (10/04/19) def
/pagecountstr (/1) def
/modtimestr (13:38:28) def
/user_header_p true def
/user_header_left_str ($cse111-wm/Assignments/asg1-dc-bigint/misc) def
/user_header_center_str () def
/user_header_right_str () def
/user_footer_p false def
%%EndPageSetup
column_borders
do_header
32.4 694 M (1:) s
52.2 694 M
(@@@@@@@@@@@@@@@@@@@@@@@@@@@@@@@@ mkc: starting thingstack.cpp) s
32.4 682 M (2:) s
52.2 682 M
(checksource thingstack.cpp) s
32.4 670 M (3:) s
52.2 670 M
(ident thingstack.cpp) s
32.4 658 M (4:) s
52.2 658 M
(thingstack.cpp:) s
32.4 646 M (5:) s
52.2 646 M
(     $Id: thingstack.cpp,v 1.22 2018-06-27 16:51:39-07 - - $) s
32.4 634 M (6:) s
52.2 634 M
(cpplint.py.perl thingstack.cpp) s
32.4 622 M (7:) s
52.2 622 M
(Done processing thingstack.cpp) s
32.4 610 M (8:) s
52.2 610 M
(g++ -Wall -Wextra -Wpedantic -Wshadow -fdiagnostics-color=never -std=gnu) s
5 598 M
(++2a -Wold-style-cast -g -O0 thingstack.cpp -o thingstack -lm) s
32.4 586 M (9:) s
52.2 586 M
(rm -f thingstack.o) s
25.8 574 M (10:) s
52.2 574 M
(@@@@@@@@@@@@@@@@@@@@@@@@@@@@@@@@ mkc: finished thingstack.cpp) s
_R
S
%%Page: (1) 4
%%BeginPageSetup
_S
38 24 translate
/pagenum 1 def
/fname (iterstack.h) def
/fdir (.) def
/ftail (iterstack.h) def
% User defined strings:
/pagenumstr (1) def
/moddatestr (04/03/19) def
/pagecountstr (/1) def
/modtimestr (16:14:13) def
/user_header_p true def
/user_header_left_str ($cse111-wm/Assignments/asg1-dc-bigint/misc) def
/user_header_center_str () def
/user_header_right_str () def
/user_footer_p false def
%%EndPageSetup
column_borders
do_header
32.4 694 M (1:) s
52.2 694 M
(// $Id: iterstack.h,v 1.5 2014-05-30 13:47:32-07 - - $) s
32.4 682 M (2:) s
32.4 670 M (3:) s
52.2 670 M
(// ) s
32.4 658 M (4:) s
52.2 658 M
(// The class std::stack does not provide an iterator, which is) s
32.4 646 M (5:) s
52.2 646 M
(// needed for this class.  So, like std::stack, class iterstack) s
32.4 634 M (6:) s
52.2 634 M
(// is implemented on top of a container.) s
32.4 622 M (7:) s
52.2 622 M
(// ) s
32.4 610 M (8:) s
52.2 610 M
(// We use private inheritance because we want to restrict) s
32.4 598 M (9:) s
52.2 598 M
(// operations only to those few that are approved.  All functions) s
25.8 586 M (10:) s
52.2 586 M
(// are merely inherited from the container, with only ones needed) s
25.8 574 M (11:) s
52.2 574 M
(// being exported as public.) s
25.8 562 M (12:) s
52.2 562 M
(// ) s
25.8 550 M (13:) s
52.2 550 M
(// No implementation file is needed because all functions are) s
25.8 538 M (14:) s
52.2 538 M
(// inherited, and the convenience functions that are added are) s
25.8 526 M (15:) s
52.2 526 M
(// trivial, and so can be inline.) s
25.8 514 M (16:) s
52.2 514 M
(//) s
25.8 502 M (17:) s
52.2 502 M
(// Any underlying container which supports the necessary operations) s
25.8 490 M (18:) s
52.2 490 M
(// could be used, such as vector, list, or deque.) s
25.8 478 M (19:) s
52.2 478 M
(// ) s
25.8 466 M (20:) s
25.8 454 M (21:) s
52.2 454 M
(#ifndef __ITERSTACK_H__) s
25.8 442 M (22:) s
52.2 442 M
(#define __ITERSTACK_H__) s
25.8 430 M (23:) s
25.8 418 M (24:) s
52.2 418 M
(#include <vector>) s
25.8 406 M (25:) s
52.2 406 M
(using namespace std;) s
25.8 394 M (26:) s
25.8 382 M (27:) s
52.2 382 M
(template <typename value_type>) s
25.8 370 M (28:) s
52.2 370 M
(class iterstack: private vector<value_type> {) s
25.8 358 M (29:) s
52.2 358 M
(   private:) s
25.8 346 M (30:) s
52.2 346 M
(      using vector<value_type>::crbegin;) s
25.8 334 M (31:) s
52.2 334 M
(      using vector<value_type>::crend;) s
25.8 322 M (32:) s
52.2 322 M
(      using vector<value_type>::push_back;) s
25.8 310 M (33:) s
52.2 310 M
(      using vector<value_type>::pop_back;) s
25.8 298 M (34:) s
52.2 298 M
(      using vector<value_type>::back;) s
25.8 286 M (35:) s
52.2 286 M
(      using const_iterator = typename) s
25.8 274 M (36:) s
52.2 274 M
(            vector<value_type>::const_reverse_iterator;) s
25.8 262 M (37:) s
52.2 262 M
(   public:) s
25.8 250 M (38:) s
52.2 250 M
(      using vector<value_type>::clear;) s
25.8 238 M (39:) s
52.2 238 M
(      using vector<value_type>::empty;) s
25.8 226 M (40:) s
52.2 226 M
(      using vector<value_type>::size;) s
25.8 214 M (41:) s
52.2 214 M
(      const_iterator begin\(\) { return crbegin\(\); }) s
25.8 202 M (42:) s
52.2 202 M
(      const_iterator end\(\) { return crend\(\); }) s
25.8 190 M (43:) s
52.2 190 M
(      void push \(const value_type& value\) { push_back \(value\); }) s
25.8 178 M (44:) s
52.2 178 M
(      void pop\(\) { pop_back\(\); }) s
25.8 166 M (45:) s
52.2 166 M
(      const value_type& top\(\) const { return back\(\); }) s
25.8 154 M (46:) s
52.2 154 M
(};) s
25.8 142 M (47:) s
25.8 130 M (48:) s
52.2 130 M
(#endif) s
25.8 118 M (49:) s
_R
S
%%Page: (1) 5
%%BeginPageSetup
_S
38 24 translate
/pagenum 1 def
/fname (thingstack.out) def
/fdir (.) def
/ftail (thingstack.out) def
% User defined strings:
/pagenumstr (1) def
/moddatestr (10/04/19) def
/pagecountstr (/2) def
/modtimestr (13:38:28) def
/user_header_p true def
/user_header_left_str ($cse111-wm/Assignments/asg1-dc-bigint/misc) def
/user_header_center_str () def
/user_header_right_str () def
/user_footer_p false def
%%EndPageSetup
column_borders
do_header
32.4 694 M (1:) s
32.4 682 M (2:) s
52.2 682 M
(enter scope 55) s
32.4 670 M (3:) s
52.2 670 M
(thing::thing\(int\)[25]: 0x1ffefff2d8-> ser=1, val=0) s
32.4 658 M (4:) s
32.4 646 M (5:) s
52.2 646 M
(stk.push \(t\);) s
32.4 634 M (6:) s
52.2 634 M
(thing::thing\(const thing&\)[29]: 0x5a24040-> ser=2, val=0) s
32.4 622 M (7:) s
32.4 610 M (8:) s
52.2 610 M
(leave scope 59) s
32.4 598 M (9:) s
52.2 598 M
(thing::~thing\(\)[41]: 0x1ffefff2d8-> ser=1, val=0) s
25.8 586 M (10:) s
25.8 574 M (11:) s
52.2 574 M
(enter scope 55) s
25.8 562 M (12:) s
52.2 562 M
(thing::thing\(int\)[25]: 0x1ffefff2d8-> ser=3, val=1) s
25.8 550 M (13:) s
25.8 538 M (14:) s
52.2 538 M
(stk.push \(t\);) s
25.8 526 M (15:) s
52.2 526 M
(thing::thing\(const thing&\)[29]: 0x5a24098-> ser=4, val=1) s
25.8 514 M (16:) s
52.2 514 M
(thing::thing\(const thing&\)[29]: 0x5a24090-> ser=5, val=0) s
25.8 502 M (17:) s
52.2 502 M
(thing::~thing\(\)[41]: 0x5a24040-> ser=2, val=0) s
25.8 490 M (18:) s
25.8 478 M (19:) s
52.2 478 M
(leave scope 59) s
25.8 466 M (20:) s
52.2 466 M
(thing::~thing\(\)[41]: 0x1ffefff2d8-> ser=3, val=1) s
25.8 454 M (21:) s
25.8 442 M (22:) s
52.2 442 M
(enter scope 55) s
25.8 430 M (23:) s
52.2 430 M
(thing::thing\(int\)[25]: 0x1ffefff2d8-> ser=6, val=2) s
25.8 418 M (24:) s
25.8 406 M (25:) s
52.2 406 M
(stk.push \(t\);) s
25.8 394 M (26:) s
52.2 394 M
(thing::thing\(const thing&\)[29]: 0x5a240f0-> ser=7, val=2) s
25.8 382 M (27:) s
52.2 382 M
(thing::thing\(const thing&\)[29]: 0x5a240e0-> ser=8, val=0) s
25.8 370 M (28:) s
52.2 370 M
(thing::thing\(const thing&\)[29]: 0x5a240e8-> ser=9, val=1) s
25.8 358 M (29:) s
52.2 358 M
(thing::~thing\(\)[41]: 0x5a24090-> ser=5, val=0) s
25.8 346 M (30:) s
52.2 346 M
(thing::~thing\(\)[41]: 0x5a24098-> ser=4, val=1) s
25.8 334 M (31:) s
25.8 322 M (32:) s
52.2 322 M
(leave scope 59) s
25.8 310 M (33:) s
52.2 310 M
(thing::~thing\(\)[41]: 0x1ffefff2d8-> ser=6, val=2) s
25.8 298 M (34:) s
25.8 286 M (35:) s
52.2 286 M
(enter scope 62) s
25.8 274 M (36:) s
52.2 274 M
(thing::thing\(const thing&\)[29]: 0x1ffefff2d0-> ser=10, val=2) s
25.8 262 M (37:) s
52.2 262 M
(stk.top\(\)[64]: 0x1ffefff2d0-> ser=10, val=2) s
25.8 250 M (38:) s
25.8 238 M (39:) s
52.2 238 M
(stk.pop\(\);) s
25.8 226 M (40:) s
52.2 226 M
(thing::~thing\(\)[41]: 0x5a240f0-> ser=7, val=2) s
25.8 214 M (41:) s
25.8 202 M (42:) s
52.2 202 M
(leave scope 67) s
25.8 190 M (43:) s
52.2 190 M
(thing::~thing\(\)[41]: 0x1ffefff2d0-> ser=10, val=2) s
25.8 178 M (44:) s
25.8 166 M (45:) s
52.2 166 M
(enter scope 62) s
25.8 154 M (46:) s
52.2 154 M
(thing::thing\(const thing&\)[29]: 0x1ffefff2d0-> ser=11, val=1) s
25.8 142 M (47:) s
52.2 142 M
(stk.top\(\)[64]: 0x1ffefff2d0-> ser=11, val=1) s
25.8 130 M (48:) s
25.8 118 M (49:) s
52.2 118 M
(stk.pop\(\);) s
25.8 106 M (50:) s
52.2 106 M
(thing::~thing\(\)[41]: 0x5a240e8-> ser=9, val=1) s
25.8 94 M (51:) s
25.8 82 M (52:) s
52.2 82 M
(leave scope 67) s
25.8 70 M (53:) s
52.2 70 M
(thing::~thing\(\)[41]: 0x1ffefff2d0-> ser=11, val=1) s
25.8 58 M (54:) s
25.8 46 M (55:) s
52.2 46 M
(enter scope 62) s
25.8 34 M (56:) s
52.2 34 M
(thing::thing\(const thing&\)[29]: 0x1ffefff2d0-> ser=12, val=0) s
25.8 22 M (57:) s
52.2 22 M
(stk.top\(\)[64]: 0x1ffefff2d0-> ser=12, val=0) s
25.8 10 M (58:) s
_R
S
%%Page: (2) 6
%%BeginPageSetup
_S
38 24 translate
/pagenum 2 def
/fname (thingstack.out) def
/fdir (.) def
/ftail (thingstack.out) def
% User defined strings:
/pagenumstr (2) def
/moddatestr (10/04/19) def
/pagecountstr (/2) def
/modtimestr (13:38:28) def
/user_header_p true def
/user_header_left_str ($cse111-wm/Assignments/asg1-dc-bigint/misc) def
/user_header_center_str () def
/user_header_right_str () def
/user_footer_p false def
%%EndPageSetup
column_borders
do_header
25.8 694 M (59:) s
52.2 694 M
(stk.pop\(\);) s
25.8 682 M (60:) s
52.2 682 M
(thing::~thing\(\)[41]: 0x5a240e0-> ser=8, val=0) s
25.8 670 M (61:) s
25.8 658 M (62:) s
52.2 658 M
(leave scope 67) s
25.8 646 M (63:) s
52.2 646 M
(thing::~thing\(\)[41]: 0x1ffefff2d0-> ser=12, val=0) s
_R
S
%%Page: (1) 7
%%BeginPageSetup
_S
38 24 translate
/pagenum 1 def
/fname (thingstack.out.grind) def
/fdir (.) def
/ftail (thingstack.out.grind) def
% User defined strings:
/pagenumstr (1) def
/moddatestr (10/04/19) def
/pagecountstr (/1) def
/modtimestr (13:38:28) def
/user_header_p true def
/user_header_left_str ($cse111-wm/Assignments/asg1-dc-bigint/misc) def
/user_header_center_str () def
/user_header_right_str () def
/user_footer_p false def
%%EndPageSetup
column_borders
do_header
32.4 694 M (1:) s
52.2 694 M
(==14085== Memcheck, a memory error detector) s
32.4 682 M (2:) s
52.2 682 M
(==14085== Copyright \(C\) 2002-2017, and GNU GPL'd, by Julian Seward et al) s
5 670 M
(.) s
32.4 658 M (3:) s
52.2 658 M
(==14085== Using Valgrind-3.14.0 and LibVEX; rerun with -h for copyright ) s
5 646 M
(info) s
32.4 634 M (4:) s
52.2 634 M
(==14085== Command: thingstack) s
32.4 622 M (5:) s
52.2 622 M
(==14085== Parent PID: 14084) s
32.4 610 M (6:) s
52.2 610 M
(==14085== ) s
32.4 598 M (7:) s
52.2 598 M
(==14085== ) s
32.4 586 M (8:) s
52.2 586 M
(==14085== HEAP SUMMARY:) s
32.4 574 M (9:) s
52.2 574 M
(==14085==     in use at exit: 0 bytes in 0 blocks) s
25.8 562 M (10:) s
52.2 562 M
(==14085==   total heap usage: 3 allocs, 3 frees, 56 bytes allocated) s
25.8 550 M (11:) s
52.2 550 M
(==14085== ) s
25.8 538 M (12:) s
52.2 538 M
(==14085== All heap blocks were freed -- no leaks are possible) s
25.8 526 M (13:) s
52.2 526 M
(==14085== ) s
25.8 514 M (14:) s
52.2 514 M
(==14085== For counts of detected and suppressed errors, rerun with: -v) s
25.8 502 M (15:) s
52.2 502 M
(==14085== ERROR SUMMARY: 0 errors from 0 contexts \(suppressed: 0 from 0\)) s
_R
S
%%Trailer
%%Pages: 7
%%DocumentNeededResources: font Times-Roman Courier-Bold Times-Bold 
%%EOF
